<?xml version="1.0" encoding="UTF-8" ?>
<testsuite errors="0" failures="0" hostname="MM-PC" name="sub_buisness_tier.TFacadeTest" skipped="0" tests="17" time="0.136" timestamp="2017-05-23T19:55:17">
  <properties>
    <property name="netbeans.autoupdate.country" value="PL" />
    <property name="javac.test.classpath" value="C:\Programy\NetBeans 8.2\platform\modules\ext\junit-4.12.jar:build/classes:C:\Programy\NetBeans 8.2\platform\modules\ext\junit-4.12.jar:C:\Programy\NetBeans 8.2\platform\modules\ext\hamcrest-core-1.3.jar" />
    <property name="javac.includes" value="sub_buisness_tier/TFacadeTest.java" />
    <property name="ant.core.lib" value="C:\Programy\NetBeans 8.2\extide\ant\lib\ant.jar" />
    <property name="javadoc.windowtitle" value="" />
    <property name="user.dir" value="C:\Users\Marcin\Documents\Politechnika\PO\repository_team2\Sprint2\Grupa 1\TA" />
    <property name="java.vm.version" value="25.121-b13" />
    <property name="libs.MySQLDriver.classpath" value="C:\Programy\NetBeans 8.2\ide\modules\ext\mysql-connector-java-5.1.23-bin.jar" />
    <property name="libs.eclipselinkmodelgen.src" value="" />
    <property name="javadoc.notree" value="false" />
    <property name="netbeans.autoupdate.version" value="1.23" />
    <property name="javac.profile.cmd.line.arg" value="" />
    <property name="jdk.home" value="C:\Programy\Java\jdk1.8.0_121" />
    <property name="libs.javac-api.src" value="" />
    <property name="javadoc.noindex" value="false" />
    <property name="libs.jpa2-persistence.classpath" value="C:\Programy\NetBeans 8.2\java\modules\ext\hibernate4\hibernate-jpa-2.1-api-1.0.0.Final.jar" />
    <property name="sun.os.patch.level" value="Service Pack 1" />
    <property name="do.archive+manifest.available" value="true" />
    <property name="java.vm.specification.name" value="Java Virtual Machine Specification" />
    <property name="nb.show.statistics.ui" value="usageStatisticsEnabled" />
    <property name="netbeans.autoupdate.variant" value="" />
    <property name="have.tests" value="true" />
    <property name="org.xml.sax.driver" value="com.sun.org.apache.xerces.internal.jaxp.SAXParserImpl$JAXPSAXParser" />
    <property name="libs.hamcrest.classpath" value="C:\Programy\NetBeans 8.2\platform\modules\ext\hamcrest-core-1.3.jar" />
    <property name="libs.javac-api.javadoc" value="" />
    <property name="os.name" value="Windows 7" />
    <property name="test.class" value="sub_buisness_tier.TFacadeTest" />
    <property name="libs.beans-binding.classpath" value="C:\Programy\NetBeans 8.2\java\modules\ext\beansbinding-1.2.1.jar" />
    <property name="ap.proc.none.internal" value="" />
    <property name="libs.JWSAntTasks.maven-pom" value="" />
    <property name="libs.testng.src" value="" />
    <property name="java.vendor.url.bug" value="http://bugreport.sun.com/bugreport/" />
    <property name="libs.jaxb.maven-pom" value="" />
    <property name="os.arch" value="amd64" />
    <property name="libs.eclipselink.src" value="" />
    <property name="user.name" value="Marcin" />
    <property name="copylibs.rebase" value="true" />
    <property name="libs.swing-layout.maven-pom" value="" />
    <property name="sun.java.command" value="org.apache.tools.ant.taskdefs.optional.junit.JUnitTestRunner sub_buisness_tier.TFacadeTest skipNonTests=false filtertrace=true haltOnError=false haltOnFailure=false showoutput=true outputtoformatters=true logfailedtests=true threadid=0 logtestlistenerevents=true formatter=org.apache.tools.ant.taskdefs.optional.junit.BriefJUnitResultFormatter formatter=org.apache.tools.ant.taskdefs.optional.junit.XMLJUnitResultFormatter,C:\Users\Marcin\Documents\Politechnika\PO\repository_team2\Sprint2\Grupa 1\TA\build\test\results\TEST-sub_buisness_tier.TFacadeTest.xml crashfile=C:\Users\Marcin\Documents\Politechnika\PO\repository_team2\Sprint2\Grupa 1\TA\build\junitvmwatcher6666420069396106001.properties propsfile=C:\Users\Marcin\Documents\Politechnika\PO\repository_team2\Sprint2\Grupa 1\TA\build\junit3655306887099387184.properties" />
    <property name="build.classes.dir" value="build/classes" />
    <property name="netbeans.accept_license_class" value="org.netbeans.license.AcceptLicense" />
    <property name="build.sysclasspath" value="ignore" />
    <property name="manifest.encoding" value="UTF-8" />
    <property name="ap.supported.internal" value="true" />
    <property name="java.failonerror" value="true" />
    <property name="libs.jaxws21.javadoc" value="C:\Programy\NetBeans 8.2\java\docs\jaxws-api-doc.zip" />
    <property name="includes" value="**" />
    <property name="user.country" value="PL" />
    <property name="manifest.file" value="manifest.mf" />
    <property name="javadoc.encoding" value="UTF-8" />
    <property name="javac.classpath" value="C:\Programy\NetBeans 8.2\platform\modules\ext\junit-4.12.jar" />
    <property name="libs.JAVADB_DRIVER_LABEL.src" value="" />
    <property name="libs.spring-framework400.classpath" value="C:\Programy\NetBeans 8.2\ide\modules\org-apache-commons-logging.jar;C:\Programy\NetBeans 8.2\java\modules\ext\cglib-2.2.jar;C:\Programy\NetBeans 8.2\java\modules\ext\spring-4\spring-aop-4.0.1.RELEASE.jar;C:\Programy\NetBeans 8.2\java\modules\ext\spring-4\spring-aspects-4.0.1.RELEASE.jar;C:\Programy\NetBeans 8.2\java\modules\ext\spring-4\spring-beans-4.0.1.RELEASE.jar;C:\Programy\NetBeans 8.2\java\modules\ext\spring-4\spring-build-src-4.0.1.RELEASE.jar;C:\Programy\NetBeans 8.2\java\modules\ext\spring-4\spring-context-4.0.1.RELEASE.jar;C:\Programy\NetBeans 8.2\java\modules\ext\spring-4\spring-context-support-4.0.1.RELEASE.jar;C:\Programy\NetBeans 8.2\java\modules\ext\spring-4\spring-core-4.0.1.RELEASE.jar;C:\Programy\NetBeans 8.2\java\modules\ext\spring-4\spring-expression-4.0.1.RELEASE.jar;C:\Programy\NetBeans 8.2\java\modules\ext\spring-4\spring-framework-bom-4.0.1.RELEASE.jar;C:\Programy\NetBeans 8.2\java\modules\ext\spring-4\spring-instrument-4.0.1.RELEASE.jar;C:\Programy\NetBeans 8.2\java\modules\ext\spring-4\spring-instrument-tomcat-4.0.1.RELEASE.jar;C:\Programy\NetBeans 8.2\java\modules\ext\spring-4\spring-jdbc-4.0.1.RELEASE.jar;C:\Programy\NetBeans 8.2\java\modules\ext\spring-4\spring-jms-4.0.1.RELEASE.jar;C:\Programy\NetBeans 8.2\java\modules\ext\spring-4\spring-messaging-4.0.1.RELEASE.jar;C:\Programy\NetBeans 8.2\java\modules\ext\spring-4\spring-orm-4.0.1.RELEASE.jar;C:\Programy\NetBeans 8.2\java\modules\ext\spring-4\spring-oxm-4.0.1.RELEASE.jar;C:\Programy\NetBeans 8.2\java\modules\ext\spring-4\spring-test-4.0.1.RELEASE.jar;C:\Programy\NetBeans 8.2\java\modules\ext\spring-4\spring-tx-4.0.1.RELEASE.jar;C:\Programy\NetBeans 8.2\java\modules\ext\spring-4\spring-web-4.0.1.RELEASE.jar;C:\Programy\NetBeans 8.2\java\modules\ext\spring-4\spring-webmvc-4.0.1.RELEASE.jar;C:\Programy\NetBeans 8.2\java\modules\ext\spring-4\spring-webmvc-portlet-4.0.1.RELEASE.jar;C:\Programy\NetBeans 8.2\java\modules\ext\spring-4\spring-websocket-4.0.1.RELEASE.jar" />
    <property name="debug-transport" value="dt_shmem" />
    <property name="netbeans.home" value="C:\Programy\NetBeans 8.2\platform" />
    <property name="build.compiler.emacs" value="true" />
    <property name="java.endorsed.dirs" value="C:\Programy\Java\jdk1.8.0_121\jre\lib\endorsed" />
    <property name="test.includes" value="sub_buisness_tier/TFacadeTest.java" />
    <property name="netbeans.dynamic.classpath" value="C:\Programy\NetBeans 8.2\platform\core\asm-all-5.0.1.jar;C:\Programy\NetBeans 8.2\platform\core\core-base.jar;C:\Programy\NetBeans 8.2\platform\core\core.jar;C:\Programy\NetBeans 8.2\platform\core\org-netbeans-libs-asm.jar;C:\Programy\NetBeans 8.2\platform\core\org-openide-filesystems-compat8.jar;C:\Programy\NetBeans 8.2\platform\core\org-openide-filesystems.jar;C:\Programy\NetBeans 8.2\platform\core\locale\core-base_ja.jar;C:\Programy\NetBeans 8.2\platform\core\locale\core-base_pt_BR.jar;C:\Programy\NetBeans 8.2\platform\core\locale\core-base_ru.jar;C:\Programy\NetBeans 8.2\platform\core\locale\core-base_zh_CN.jar;C:\Programy\NetBeans 8.2\platform\core\locale\core_ja.jar;C:\Programy\NetBeans 8.2\platform\core\locale\core_pt_BR.jar;C:\Programy\NetBeans 8.2\platform\core\locale\core_ru.jar;C:\Programy\NetBeans 8.2\platform\core\locale\core_zh_CN.jar;C:\Programy\NetBeans 8.2\platform\core\locale\org-netbeans-libs-asm_ja.jar;C:\Programy\NetBeans 8.2\platform\core\locale\org-netbeans-libs-asm_pt_BR.jar;C:\Programy\NetBeans 8.2\platform\core\locale\org-netbeans-libs-asm_ru.jar;C:\Programy\NetBeans 8.2\platform\core\locale\org-netbeans-libs-asm_zh_CN.jar;C:\Programy\NetBeans 8.2\platform\core\locale\org-openide-filesystems-compat8_ja.jar;C:\Programy\NetBeans 8.2\platform\core\locale\org-openide-filesystems-compat8_pt_BR.jar;C:\Programy\NetBeans 8.2\platform\core\locale\org-openide-filesystems-compat8_ru.jar;C:\Programy\NetBeans 8.2\platform\core\locale\org-openide-filesystems-compat8_zh_CN.jar;C:\Programy\NetBeans 8.2\platform\core\locale\org-openide-filesystems_ja.jar;C:\Programy\NetBeans 8.2\platform\core\locale\org-openide-filesystems_pt_BR.jar;C:\Programy\NetBeans 8.2\platform\core\locale\org-openide-filesystems_ru.jar;C:\Programy\NetBeans 8.2\platform\core\locale\org-openide-filesystems_zh_CN.jar;C:\Programy\NetBeans 8.2\nb\core\org-netbeans-upgrader.jar;C:\Programy\NetBeans 8.2\nb\core\locale\core_nb.jar;C:\Programy\NetBeans 8.2\nb\core\locale\core_nb_ja.jar;C:\Programy\NetBeans 8.2\nb\core\locale\core_nb_pt_BR.jar;C:\Programy\NetBeans 8.2\nb\core\locale\core_nb_ru.jar;C:\Programy\NetBeans 8.2\nb\core\locale\core_nb_zh_CN.jar;C:\Programy\NetBeans 8.2\nb\core\locale\org-netbeans-upgrader_ja.jar;C:\Programy\NetBeans 8.2\nb\core\locale\org-netbeans-upgrader_pt_BR.jar;C:\Programy\NetBeans 8.2\nb\core\locale\org-netbeans-upgrader_ru.jar;C:\Programy\NetBeans 8.2\nb\core\locale\org-netbeans-upgrader_zh_CN.jar" />
    <property name="java.vm.specification.version" value="1.8" />
    <property name="libs.hibernate4-support.src" value="" />
    <property name="netbeans.productversion" value="NetBeans IDE 8.2 (Build 201609300101)" />
    <property name="libs.jaxws21.src" value="" />
    <property name="do.archive" value="true" />
    <property name="netbeans.autoupdate.language" value="pl" />
    <property name="java.vendor" value="Oracle Corporation" />
    <property name="jar.index.metainf" value="false" />
    <property name="javac.debug" value="true" />
    <property name="javadoc.splitindex" value="true" />
    <property name="file.separator" value="\" />
    <property name="javac.includesfile.binary" value="C:\Users\Marcin\Documents\Politechnika\PO\repository_team2\Sprint2\Grupa 1\TA\null1628985823" />
    <property name="libs.junit_4.maven-pom" value="" />
    <property name="mkdist.disabled" value="false" />
    <property name="javac.test.processorpath" value="C:\Programy\NetBeans 8.2\platform\modules\ext\junit-4.12.jar:build/classes:C:\Programy\NetBeans 8.2\platform\modules\ext\junit-4.12.jar:C:\Programy\NetBeans 8.2\platform\modules\ext\hamcrest-core-1.3.jar" />
    <property name="netbeans.buildnumber" value="201609300101" />
    <property name="libs.JWSAntTasks.javadoc" value="" />
    <property name="build.generated.sources.dir" value="build/generated-sources" />
    <property name="user.variant" value="" />
    <property name="libs.eclipselinkmodelgen.classpath" value="C:\Programy\NetBeans 8.2\java\modules\ext\eclipselink\org.eclipse.persistence.jpa.modelgen_2.5.2.v20140319-9ad6abd.jar" />
    <property name="sun.java.launcher" value="SUN_STANDARD" />
    <property name="libs.hibernate4-persistencemodelgen.javadoc" value="" />
    <property name="libs.jaxb.javadoc" value="C:\Programy\NetBeans 8.2\ide\docs\jaxb-api-doc.zip" />
    <property name="javac.includes.binary" value="C:\Users\Marcin\Documents\Politechnika\PO\repository_team2\Sprint2\Grupa 1\TA\build\test\classes\sub_buisness_tier\TFacadeTest.class" />
    <property name="ant.home" value="C:\Programy\NetBeans 8.2\extide\ant" />
    <property name="libs.junit_4.src" value="C:\Programy\NetBeans 8.2\platform\docs\junit-4.12-sources.jar" />
    <property name="libs.testng.classpath" value="C:\Programy\NetBeans 8.2\platform\modules\ext\testng-6.8.1-dist.jar" />
    <property name="libs.absolutelayout.maven-pom" value="" />
    <property name="ant.java.version" value="1.8" />
    <property name="java.library.path" value="C:\Programy\Java\jdk1.8.0_121\jre\bin;C:\Windows\Sun\Java\bin;C:\Windows\system32;C:\Windows;C:\ProgramData\Oracle\Java\javapath;C:\Windows\system32;C:\Windows;C:\Windows\System32\Wbem;C:\Windows\System32\WindowsPowerShell\v1.0\;C:\Program Files (x86)\Windows Kits\8.1\Windows Performance Toolkit\;C:\Program Files\Microsoft SQL Server\110\Tools\Binn\;C:\Program Files (x86)\Skype\Phone\;C:\Programy\Git\cmd;C:\Program Files (x86)\NVIDIA Corporation\PhysX\Common;." />
    <property name="javadoc.author" value="false" />
    <property name="java.util.logging.config.class" value="org.netbeans.core.startup.TopLogging" />
    <property name="libs.spring-framework400.src" value="" />
    <property name="libs.PostgreSQLDriver.src" value="" />
    <property name="sun.arch.data.model" value="64" />
    <property name="basedir" value="C:\Users\Marcin\Documents\Politechnika\PO\repository_team2\Sprint2\Grupa 1\TA" />
    <property name="libs.jpa20-persistence.maven-pom" value="" />
    <property name="jar.compress" value="false" />
    <property name="path.separator" value=";" />
    <property name="ant.junit.enabletestlistenerevents" value="true" />
    <property name="sun.io.unicode.encoding" value="UnicodeLittle" />
    <property name="libs.jaxws21.classpath" value="C:\Programy\NetBeans 8.2\ide\modules\ext\jaxb\jaxb-impl.jar;C:\Programy\NetBeans 8.2\ide\modules\ext\jaxb\jaxb-xjc.jar;C:\Programy\NetBeans 8.2\java\modules\ext\jaxws22\FastInfoset.jar;C:\Programy\NetBeans 8.2\java\modules\ext\jaxws22\gmbal-api-only.jar;C:\Programy\NetBeans 8.2\java\modules\ext\jaxws22\ha-api.jar;C:\Programy\NetBeans 8.2\java\modules\ext\jaxws22\javax.mail_1.4.jar;C:\Programy\NetBeans 8.2\java\modules\ext\jaxws22\jaxws-rt.jar;C:\Programy\NetBeans 8.2\java\modules\ext\jaxws22\jaxws-tools.jar;C:\Programy\NetBeans 8.2\java\modules\ext\jaxws22\management-api.jar;C:\Programy\NetBeans 8.2\java\modules\ext\jaxws22\mimepull.jar;C:\Programy\NetBeans 8.2\java\modules\ext\jaxws22\policy.jar;C:\Programy\NetBeans 8.2\java\modules\ext\jaxws22\saaj-impl.jar;C:\Programy\NetBeans 8.2\java\modules\ext\jaxws22\stax-ex.jar;C:\Programy\NetBeans 8.2\java\modules\ext\jaxws22\stax2-api.jar;C:\Programy\NetBeans 8.2\java\modules\ext\jaxws22\streambuffer.jar;C:\Programy\NetBeans 8.2\java\modules\ext\jaxws22\woodstox-core-asl.jar;C:\Programy\NetBeans 8.2\java\modules\ext\jaxws22\api\jaxws-api.jar;C:\Programy\NetBeans 8.2\java\modules\ext\jaxws22\api\jsr181-api.jar;C:\Programy\NetBeans 8.2\java\modules\ext\jaxws22\api\javax.annotation.jar;C:\Programy\NetBeans 8.2\java\modules\ext\jaxws22\api\saaj-api.jar;C:\Programy\NetBeans 8.2\ide\modules\ext\jaxb\activation.jar;C:\Programy\NetBeans 8.2\ide\modules\ext\jaxb\api\jaxb-api.jar;C:\Programy\NetBeans 8.2\ide\modules\ext\jaxb\api\jsr173_1.0_api.jar" />
    <property name="apple.awt.graphics.UseQuartz" value="true" />
    <property name="user.language" value="pl" />
    <property name="testng.mode" value="testng" />
    <property name="ant.file.TA" value="C:\Users\Marcin\Documents\Politechnika\PO\repository_team2\Sprint2\Grupa 1\TA\build.xml" />
    <property name="libs.JAXB-ENDORSED.maven-pom" value="" />
    <property name="libs.eclipselink.maven-pom" value="" />
    <property name="test.binaryincludes" value="&lt;nothing&gt;" />
    <property name="manifest.available" value="true" />
    <property name="libs.spring-framework300.maven-pom" value="" />
    <property name="run.test.classpath" value="C:\Programy\NetBeans 8.2\platform\modules\ext\junit-4.12.jar:build/classes:C:\Programy\NetBeans 8.2\platform\modules\ext\junit-4.12.jar:C:\Programy\NetBeans 8.2\platform\modules\ext\hamcrest-core-1.3.jar:build/test/classes" />
    <property name="ant.project.invoked-targets" value="test-single" />
    <property name="test.binaryexcludes" value="" />
    <property name="libs.swing-layout.javadoc" value="C:\Programy\NetBeans 8.2\platform\docs\swing-layout-1.0.4-doc.zip" />
    <property name="sun.java2d.dpiaware" value="true" />
    <property name="libs.hibernate4-persistence.maven-pom" value="" />
    <property name="https.nonProxyHosts" value="localhost|127.0.0.1|MM-PC" />
    <property name="libs.PostgreSQLDriver.maven-pom" value="" />
    <property name="java.class.version" value="52.0" />
    <property name="libs.JAVADB_DRIVER_LABEL.classpath" value="C:\Programy\Java\jdk1.8.0_121\db\lib\derby.jar;C:\Programy\Java\jdk1.8.0_121\db\lib\derbyclient.jar;C:\Programy\Java\jdk1.8.0_121\db\lib\derbynet.jar" />
    <property name="libs.hibernate4-persistencemodelgen.maven-pom" value="" />
    <property name="libs.eclipselink.javadoc" value="C:\Programy\NetBeans 8.2\java\modules\ext\docs\javax.persistence-2.1.0-doc.zip" />
    <property name="user.properties.file" value="C:\Users\Marcin\AppData\Roaming\NetBeans\8.2\build.properties" />
    <property name="runtime.encoding" value="UTF-8" />
    <property name="libs.javac-api.maven-pom" value="" />
    <property name="file.encoding.pkg" value="sun.io" />
    <property name="sun.cpu.endian" value="little" />
    <property name="libs.JAXB-ENDORSED.javadoc" value="" />
    <property name="libs.JWSAntTasks.classpath" value="C:\Programy\NetBeans 8.2\java\ant\extra\org-netbeans-modules-javawebstart-anttasks.jar" />
    <property name="libs.spring-framework300.src" value="" />
    <property name="empty.dir" value="C:\Users\Marcin\Documents\Politechnika\PO\repository_team2\Sprint2\Grupa 1\TA\build\empty" />
    <property name="version-output" value="java version &quot;1.8" />
    <property name="test.binarytestincludes" value="" />
    <property name="libs.hibernate4-persistencemodelgen.src" value="" />
    <property name="javadoc.preview" value="true" />
    <property name="libs.jpa20-persistence.javadoc" value="C:\Programy\NetBeans 8.2\java\modules\ext\docs\javax.persistence-2.1.0-doc.zip" />
    <property name="java.home" value="C:\Programy\Java\jdk1.8.0_121\jre" />
    <property name="debug.test.classpath" value="C:\Programy\NetBeans 8.2\platform\modules\ext\junit-4.12.jar:build/classes:C:\Programy\NetBeans 8.2\platform\modules\ext\junit-4.12.jar:C:\Programy\NetBeans 8.2\platform\modules\ext\hamcrest-core-1.3.jar:build/test/classes" />
    <property name="netbeans.importclass" value="org.netbeans.upgrade.AutoUpgrade" />
    <property name="ant.project.default-target" value="default" />
    <property name="annotation.processing.run.all.processors" value="true" />
    <property name="libs.PostgreSQLDriver.javadoc" value="" />
    <property name="libs.MySQLDriver.maven-pom" value="" />
    <property name="ant.file.TA-impl" value="C:\Users\Marcin\Documents\Politechnika\PO\repository_team2\Sprint2\Grupa 1\TA\nbproject\build-impl.xml" />
    <property name="libs.hibernate4-persistence.javadoc" value="C:\Programy\NetBeans 8.2\java\modules\ext\docs\javax.persistence-2.1.0-doc.zip" />
    <property name="http.nonProxyHosts" value="localhost|127.0.0.1|MM-PC" />
    <property name="libs.junit_4.javadoc" value="C:\Programy\NetBeans 8.2\platform\docs\junit-4.12-javadoc.jar" />
    <property name="run.classpath" value="C:\Programy\NetBeans 8.2\platform\modules\ext\junit-4.12.jar:build/classes" />
    <property name="jna.boot.library.name" value="jnidispatch-422" />
    <property name="sun.awt.datatransfer.timeout" value="1000" />
    <property name="libs.jpa2-persistence.maven-pom" value="" />
    <property name="annotation.processing.enabled.in.editor" value="false" />
    <property name="libs.hibernate4-support.classpath" value="C:\Programy\NetBeans 8.2\java\modules\ext\hibernate4\antlr-2.7.7.jar;C:\Programy\NetBeans 8.2\java\modules\ext\hibernate4\c3p0-0.9.2.1.jar;C:\Programy\NetBeans 8.2\java\modules\ext\hibernate4\hibernate-c3p0-4.3.1.Final.jar;C:\Programy\NetBeans 8.2\java\modules\ext\hibernate4\mchange-commons-java-0.2.3.4.jar;C:\Programy\NetBeans 8.2\java\modules\ext\hibernate4\dom4j-1.6.1.jar;C:\Programy\NetBeans 8.2\java\modules\ext\hibernate4\ehcache-core-2.4.3.jar;C:\Programy\NetBeans 8.2\java\modules\ext\hibernate4\hibernate-ehcache-4.3.1.Final.jar;C:\Programy\NetBeans 8.2\java\modules\ext\hibernate4\hibernate-core-4.3.1.Final.jar;C:\Programy\NetBeans 8.2\java\modules\ext\hibernate4\jboss-logging-3.1.3.GA.jar;C:\Programy\NetBeans 8.2\java\modules\ext\hibernate4\hibernate-commons-annotations-4.0.4.Final.jar;C:\Programy\NetBeans 8.2\java\modules\ext\hibernate4\hibernate-entitymanager-4.3.1.Final.jar;C:\Programy\NetBeans 8.2\java\modules\ext\hibernate4\javassist-3.18.1-GA.jar;C:\Programy\NetBeans 8.2\java\modules\ext\hibernate4\jboss-transaction-api_1.2_spec-1.0.0.Final.jar;C:\Programy\NetBeans 8.2\java\modules\ext\hibernate4\slf4j-api-1.6.1.jar;C:\Programy\NetBeans 8.2\java\modules\ext\hibernate4\slf4j-simple-1.6.1.jar" />
    <property name="nb.native.filechooser" value="false" />
    <property name="ant.file.type.TA-impl" value="file" />
    <property name="sun.management.compiler" value="HotSpot 64-Bit Tiered Compilers" />
    <property name="javac.deprecation" value="false" />
    <property name="javadoc.use" value="true" />
    <property name="sun.java2d.noddraw" value="true" />
    <property name="javac.processorpath" value="C:\Programy\NetBeans 8.2\platform\modules\ext\junit-4.12.jar" />
    <property name="libs.hamcrest.maven-pom" value="" />
    <property name="javac.compilerargs" value="" />
    <property name="ant.file" value="C:\Users\Marcin\Documents\Politechnika\PO\repository_team2\Sprint2\Grupa 1\TA\build.xml" />
    <property name="libs.beans-binding.maven-pom" value="" />
    <property name="libs.hibernate4-support.javadoc" value="C:\Programy\NetBeans 8.2\java\modules\ext\docs\javax.persistence-2.1.0-doc.zip" />
    <property name="libs.beans-binding.src" value="" />
    <property name="java.vm.specification.vendor" value="Oracle Corporation" />
    <property name="libs.swing-layout.src" value="C:\Programy\NetBeans 8.2\platform\docs\swing-layout-1.0.4-src.zip" />
    <property name="org.openide.major.version" value="IDE/1" />
    <property name="java.vm.name" value="Java HotSpot(TM) 64-Bit Server VM" />
    <property name="netbeans.user" value="C:\Users\Marcin\AppData\Roaming\NetBeans\8.2" />
    <property name="javadoc.additionalparam" value="" />
    <property name="java.io.tmpdir" value="C:\Users\Marcin\AppData\Local\Temp\" />
    <property name="java.vendor.url" value="http://java.oracle.com/" />
    <property name="endorsed.classpath.cmd.line.arg" value="" />
    <property name="jna.loaded" value="true" />
    <property name="junit.available" value="true" />
    <property name="org.openide.awt.ActionReference.completion" value="org.netbeans.modules.apisupport.project.layers.PathCompletions" />
    <property name="sun.boot.library.path" value="C:\Programy\Java\jdk1.8.0_121\jre\bin" />
    <property name="have.sources" value="true" />
    <property name="libs.hamcrest.javadoc" value="" />
    <property name="debug.classpath" value="C:\Programy\NetBeans 8.2\platform\modules\ext\junit-4.12.jar:build/classes" />
    <property name="javac.external.vm" value="true" />
    <property name="javadoc.private" value="false" />
    <property name="test.src.dir" value="test" />
    <property name="ap.processors.internal" value="" />
    <property name="meta.inf.dir" value="src/META-INF" />
    <property name="javadoc.encoding.used" value="UTF-8" />
    <property name="dist.jar" value="dist/TA.jar" />
    <property name="libs.spring-framework400.maven-pom" value="" />
    <property name="java.runtime.name" value="Java(TM) SE Runtime Environment" />
    <property name="ant.project.name" value="TA" />
    <property name="netbeans.hash.code" value="unique=NB_EXTIDE_JAVA0ae3c5886-e9f9-493c-a853-b1e1cb404023_f922f69a-c061-4e4d-8934-d45d6be3be67" />
    <property name="ant.file.type.TA" value="file" />
    <property name="netbeans.default_userdir_root" value="C:\Users\Marcin\AppData\Roaming\NetBeans" />
    <property name="junit.selected.version" value="4" />
    <property name="sun.cpu.isalist" value="amd64" />
    <property name="libs.spring-framework400.javadoc" value="" />
    <property name="libs.CopyLibs.javadoc" value="" />
    <property name="org.openide.specification.version" value="6.2" />
    <property name="user.home" value="C:\Users\Marcin" />
    <property name="annotation.processing.processors.list" value="" />
    <property name="debug-args-line" value="-Xdebug" />
    <property name="libs.JWSAntTasks.src" value="" />
    <property name="jar.index" value="false" />
    <property name="libs.CopyLibs.maven-pom" value="" />
    <property name="libs.spring-framework300.javadoc" value="" />
    <property name="libs.absolutelayout.javadoc" value="" />
    <property name="java.specification.name" value="Java Platform API Specification" />
    <property name="do.archive+main.class.available" value="true" />
    <property name="java.specification.vendor" value="Oracle Corporation" />
    <property name="libs.javac-api.classpath" value="C:\Programy\NetBeans 8.2\java\modules\ext\nb-javac-api.jar" />
    <property name="java.version" value="1.8.0_121" />
    <property name="run.jvmargs.ide" value="" />
    <property name="javadoc.version" value="false" />
    <property name="libs.MySQLDriver.javadoc" value="" />
    <property name="org.openide.version" value="deprecated" />
    <property name="platform.java" value="C:\Programy\Java\jdk1.8.0_121\jre/bin/java" />
    <property name="source.encoding" value="UTF-8" />
    <property name="ap.cmd.line.internal" value="" />
    <property name="libs.eclipselinkmodelgen.maven-pom" value="" />
    <property name="libs.eclipselinkmodelgen.javadoc" value="" />
    <property name="netbeans.home+have.tests" value="true" />
    <property name="annotation.processing.processor.options" value="" />
    <property name="libs.testng.maven-pom" value="" />
    <property name="libs.jaxb.src" value="" />
    <property name="jdk.launcher.addexports.5" value="java.management/sun.management=ALL-UNNAMED" />
    <property name="jdk.launcher.addexports.4" value="java.desktop/com.sun.java.swing.plaf.windows=ALL-UNNAMED" />
    <property name="jdk.launcher.addexports.3" value="java.desktop/sun.awt.im=ALL-UNNAMED" />
    <property name="work.dir" value="C:\Users\Marcin\Documents\Politechnika\PO\repository_team2\Sprint2\Grupa 1\TA" />
    <property name="jdk.launcher.addexports.2" value="java.desktop/java.awt.peer=ALL-UNNAMED" />
    <property name="libs.jaxb.classpath" value="C:\Programy\NetBeans 8.2\ide\modules\ext\jaxb\jaxb-impl.jar;C:\Programy\NetBeans 8.2\ide\modules\ext\jaxb\jaxb-xjc.jar;C:\Programy\NetBeans 8.2\ide\modules\ext\jaxb\jaxb1-impl.jar;C:\Programy\NetBeans 8.2\ide\modules\ext\jaxb\activation.jar;C:\Programy\NetBeans 8.2\ide\modules\ext\jaxb\api\jaxb-api.jar;C:\Programy\NetBeans 8.2\ide\modules\ext\jaxb\api\jsr173_1.0_api.jar" />
    <property name="jdk.launcher.addexports.1" value="java.base/jdk.internal.jrtfs=ALL-UNNAMED" />
    <property name="jdk.launcher.addexports.0" value="java.desktop/sun.awt=ALL-UNNAMED" />
    <property name="do.depend" value="false" />
    <property name="dist.javadoc.dir" value="dist/javadoc" />
    <property name="libs.swing-layout.classpath" value="C:\Programy\NetBeans 8.2\platform\modules\ext\swing-layout-1.0.4.jar" />
    <property name="build.generated.dir" value="build/generated" />
    <property name="javac.source" value="1.8" />
    <property name="line.separator" value="&#xd;&#xa;" />
    <property name="java.specification.version" value="1.8" />
    <property name="libs.jaxws21.maven-pom" value="" />
    <property name="java.vm.info" value="mixed mode" />
    <property name="nb.junit.batch" value="true" />
    <property name="junit.forkmode" value="perTest" />
    <property name="sun.boot.class.path" value="C:\Programy\Java\jdk1.8.0_121\jre\lib\resources.jar;C:\Programy\Java\jdk1.8.0_121\jre\lib\rt.jar;C:\Programy\Java\jdk1.8.0_121\jre\lib\sunrsasign.jar;C:\Programy\Java\jdk1.8.0_121\jre\lib\jsse.jar;C:\Programy\Java\jdk1.8.0_121\jre\lib\jce.jar;C:\Programy\Java\jdk1.8.0_121\jre\lib\charsets.jar;C:\Programy\Java\jdk1.8.0_121\jre\lib\jfr.jar;C:\Programy\Java\jdk1.8.0_121\jre\classes" />
    <property name="javac.target" value="1.8" />
    <property name="built-jar.properties" value="C:\Users\Marcin\Documents\Politechnika\PO\repository_team2\Sprint2\Grupa 1\TA\build\built-jar.properties" />
    <property name="build.test.classes.dir" value="build/test/classes" />
    <property name="src.dir" value="src" />
    <property name="annotation.processing.enabled" value="true" />
    <property name="libs.jpa2-persistence.src" value="" />
    <property name="sun.awt.keepWorkingSetOnMinimize" value="true" />
    <property name="libs.jpa20-persistence.src" value="" />
    <property name="libs.JAVADB_DRIVER_LABEL.maven-pom" value="" />
    <property name="ignore.failing.tests" value="true" />
    <property name="dist.dir" value="dist" />
    <property name="testng.debug.mode" value="" />
    <property name="javac.fork" value="true" />
    <property name="java.awt.printerjob" value="sun.awt.windows.WPrinterJob" />
    <property name="default.javac.source" value="1.8" />
    <property name="debug-transport-by-os" value="dt_shmem" />
    <property name="libs.MySQLDriver.src" value="" />
    <property name="sun.jnu.encoding" value="Cp1250" />
    <property name="java.runtime.version" value="1.8.0_121-b13" />
    <property name="build.test.results.dir" value="build/test/results" />
    <property name="default.javac.target" value="1.8" />
    <property name="libs.junit_4.classpath" value="C:\Programy\NetBeans 8.2\platform\modules\ext\junit-4.12.jar" />
    <property name="user.timezone" value="" />
    <property name="nb.junit.single" value="false" />
    <property name="libs.JAVADB_DRIVER_LABEL.javadoc" value="" />
    <property name="netbeans.dirs" value="C:\Programy\NetBeans 8.2\nb;C:\Programy\NetBeans 8.2\ergonomics;C:\Programy\NetBeans 8.2\ide;C:\Programy\NetBeans 8.2\extide;C:\Programy\NetBeans 8.2\java;C:\Programy\NetBeans 8.2\apisupport;C:\Programy\NetBeans 8.2\webcommon;C:\Programy\NetBeans 8.2\websvccommon;C:\Programy\NetBeans 8.2\enterprise;C:\Programy\NetBeans 8.2\mobility;C:\Programy\NetBeans 8.2\profiler;C:\Programy\NetBeans 8.2\python;C:\Programy\NetBeans 8.2\php;C:\Programy\NetBeans 8.2\identity;C:\Programy\NetBeans 8.2\harness;C:\Programy\NetBeans 8.2\cnd;C:\Programy\NetBeans 8.2\cndext;C:\Programy\NetBeans 8.2\dlight;C:\Programy\NetBeans 8.2\groovy;C:\Programy\NetBeans 8.2\extra;C:\Programy\NetBeans 8.2\javacard;C:\Programy\NetBeans 8.2\javafx" />
    <property name="java.ext.dirs" value="C:\Programy\Java\jdk1.8.0_121\jre\lib\ext;C:\Windows\Sun\Java\lib\ext" />
    <property name="libs.absolutelayout.classpath" value="C:\Programy\NetBeans 8.2\java\modules\ext\AbsoluteLayout.jar" />
    <property name="excludes" value="" />
    <property name="libs.jpa2-persistence.javadoc" value="C:\Programy\NetBeans 8.2\java\modules\ext\docs\javax.persistence-2.1.0-doc.zip" />
    <property name="java.class.path" value="C:\Programy\NetBeans 8.2\platform\modules\ext\junit-4.12.jar;C:\Users\Marcin\Documents\Politechnika\PO\repository_team2\Sprint2\Grupa 1\TA\build\classes;C:\Programy\NetBeans 8.2\platform\modules\ext\hamcrest-core-1.3.jar;C:\Users\Marcin\Documents\Politechnika\PO\repository_team2\Sprint2\Grupa 1\TA\build\test\classes;C:\Programy\NetBeans 8.2\extide\ant\lib\ant-launcher.jar;C:\Programy\NetBeans 8.2\extide\ant\lib\ant.jar;C:\Programy\NetBeans 8.2\extide\ant\lib\ant-junit.jar;C:\Programy\NetBeans 8.2\extide\ant\lib\ant-junit4.jar" />
    <property name="apple.laf.useScreenMenuBar" value="true" />
    <property name="do.mkdist" value="true" />
    <property name="libs.absolutelayout.src" value="" />
    <property name="libs.jpa20-persistence.classpath" value="C:\Programy\NetBeans 8.2\java\modules\ext\eclipselink\javax.persistence_2.1.0.v201304241213.jar" />
    <property name="os.version" value="6.1" />
    <property name="application.args" value="" />
    <property name="sun.awt.enableExtraMouseButtons" value="true" />
    <property name="main.class.available" value="true" />
    <property name="sun.desktop" value="windows" />
    <property name="libs.hibernate4-persistence.src" value="" />
    <property name="libs.hibernate4-support.maven-pom" value="" />
    <property name="libs.JAXB-ENDORSED.classpath" value="C:\Programy\NetBeans 8.2\ide\modules\ext\jaxb\api\jaxb-api.jar" />
    <property name="nb.internal.action.name" value="test.single" />
    <property name="libs.eclipselink.classpath" value="C:\Programy\NetBeans 8.2\java\modules\ext\eclipselink\eclipselink.jar;C:\Programy\NetBeans 8.2\java\modules\ext\eclipselink\javax.persistence_2.1.0.v201304241213.jar;C:\Programy\NetBeans 8.2\java\modules\ext\eclipselink\org.eclipse.persistence.jpa.jpql_2.5.2.v20140319-9ad6abd.jar" />
    <property name="libs.beans-binding.javadoc" value="C:\Programy\NetBeans 8.2\java\docs\beansbinding-1.2.1-doc.zip" />
    <property name="java.awt.graphicsenv" value="sun.awt.Win32GraphicsEnvironment" />
    <property name="java.vm.vendor" value="Oracle Corporation" />
    <property name="libs.CopyLibs.classpath" value="C:\Programy\NetBeans 8.2\java\ant\extra\org-netbeans-modules-java-j2seproject-copylibstask.jar" />
    <property name="libs.spring-framework300.classpath" value="C:\Programy\NetBeans 8.2\ide\modules\org-apache-commons-logging.jar;C:\Programy\NetBeans 8.2\java\modules\ext\cglib-2.2.jar;C:\Programy\NetBeans 8.2\java\modules\ext\spring-3.0\spring-aop-3.2.7.RELEASE.jar;C:\Programy\NetBeans 8.2\java\modules\ext\spring-3.0\spring-aspects-3.2.7.RELEASE.jar;C:\Programy\NetBeans 8.2\java\modules\ext\spring-3.0\spring-beans-3.2.7.RELEASE.jar;C:\Programy\NetBeans 8.2\java\modules\ext\spring-3.0\spring-build-src-3.2.7.RELEASE.jar;C:\Programy\NetBeans 8.2\java\modules\ext\spring-3.0\spring-context-3.2.7.RELEASE.jar;C:\Programy\NetBeans 8.2\java\modules\ext\spring-3.0\spring-context-support-3.2.7.RELEASE.jar;C:\Programy\NetBeans 8.2\java\modules\ext\spring-3.0\spring-core-3.2.7.RELEASE.jar;C:\Programy\NetBeans 8.2\java\modules\ext\spring-3.0\spring-expression-3.2.7.RELEASE.jar;C:\Programy\NetBeans 8.2\java\modules\ext\spring-3.0\spring-framework-bom-3.2.7.RELEASE.jar;C:\Programy\NetBeans 8.2\java\modules\ext\spring-3.0\spring-instrument-3.2.7.RELEASE.jar;C:\Programy\NetBeans 8.2\java\modules\ext\spring-3.0\spring-instrument-tomcat-3.2.7.RELEASE.jar;C:\Programy\NetBeans 8.2\java\modules\ext\spring-3.0\spring-jdbc-3.2.7.RELEASE.jar;C:\Programy\NetBeans 8.2\java\modules\ext\spring-3.0\spring-jms-3.2.7.RELEASE.jar;C:\Programy\NetBeans 8.2\java\modules\ext\spring-3.0\spring-orm-3.2.7.RELEASE.jar;C:\Programy\NetBeans 8.2\java\modules\ext\spring-3.0\spring-oxm-3.2.7.RELEASE.jar;C:\Programy\NetBeans 8.2\java\modules\ext\spring-3.0\spring-struts-3.2.7.RELEASE.jar;C:\Programy\NetBeans 8.2\java\modules\ext\spring-3.0\spring-test-3.2.7.RELEASE.jar;C:\Programy\NetBeans 8.2\java\modules\ext\spring-3.0\spring-tx-3.2.7.RELEASE.jar;C:\Programy\NetBeans 8.2\java\modules\ext\spring-3.0\spring-web-3.2.7.RELEASE.jar;C:\Programy\NetBeans 8.2\java\modules\ext\spring-3.0\spring-webmvc-3.2.7.RELEASE.jar;C:\Programy\NetBeans 8.2\java\modules\ext\spring-3.0\spring-webmvc-portlet-3.2.7.RELEASE.jar" />
    <property name="libs.hamcrest.src" value="" />
    <property name="run.jvmargs" value="" />
    <property name="libs.hibernate4-persistence.classpath" value="C:\Programy\NetBeans 8.2\java\modules\ext\hibernate4\antlr-2.7.7.jar;C:\Programy\NetBeans 8.2\java\modules\ext\hibernate4\c3p0-0.9.2.1.jar;C:\Programy\NetBeans 8.2\java\modules\ext\hibernate4\hibernate-c3p0-4.3.1.Final.jar;C:\Programy\NetBeans 8.2\java\modules\ext\hibernate4\mchange-commons-java-0.2.3.4.jar;C:\Programy\NetBeans 8.2\java\modules\ext\hibernate4\dom4j-1.6.1.jar;C:\Programy\NetBeans 8.2\java\modules\ext\hibernate4\ehcache-core-2.4.3.jar;C:\Programy\NetBeans 8.2\java\modules\ext\hibernate4\hibernate-ehcache-4.3.1.Final.jar;C:\Programy\NetBeans 8.2\java\modules\ext\hibernate4\hibernate-core-4.3.1.Final.jar;C:\Programy\NetBeans 8.2\java\modules\ext\hibernate4\jboss-logging-3.1.3.GA.jar;C:\Programy\NetBeans 8.2\java\modules\ext\hibernate4\hibernate-commons-annotations-4.0.4.Final.jar;C:\Programy\NetBeans 8.2\java\modules\ext\hibernate4\hibernate-entitymanager-4.3.1.Final.jar;C:\Programy\NetBeans 8.2\java\modules\ext\hibernate4\javassist-3.18.1-GA.jar;C:\Programy\NetBeans 8.2\java\modules\ext\hibernate4\jboss-transaction-api_1.2_spec-1.0.0.Final.jar;C:\Programy\NetBeans 8.2\java\modules\ext\hibernate4\slf4j-api-1.6.1.jar;C:\Programy\NetBeans 8.2\java\modules\ext\hibernate4\slf4j-simple-1.6.1.jar;C:\Programy\NetBeans 8.2\java\modules\ext\hibernate4\hibernate-jpa-2.1-api-1.0.0.Final.jar" />
    <property name="libs.JAXB-ENDORSED.src" value="" />
    <property name="dist.archive.excludes" value="" />
    <property name="libs.testng.javadoc" value="C:\Programy\NetBeans 8.2\platform\docs\testng-6.8.1-javadoc.zip" />
    <property name="user.script" value="" />
    <property name="libs.PostgreSQLDriver.classpath" value="C:\Programy\NetBeans 8.2\ide\modules\ext\postgresql-9.4.1209.jar" />
    <property name="libs.hibernate4-persistencemodelgen.classpath" value="C:\Programy\NetBeans 8.2\java\modules\ext\hibernate4\hibernate-jpamodelgen-4.3.1.Final.jar" />
    <property name="annotation.processing.source.output" value="build/generated-sources/ap-source-output" />
    <property name="main.class" value="sub_buisness_tier.entities.Main" />
    <property name="libs.CopyLibs.src" value="" />
    <property name="build.dir" value="build" />
    <property name="ant.version" value="Apache Ant(TM) version 1.9.7 compiled on April 9 2016" />
    <property name="file.encoding" value="Cp1250" />
    <property name="build.classes.excludes" value="**/*.java,**/*.form" />
    <property name="jdkBug6558476" value="false" />
    <property name="javadoc.nonavbar" value="false" />
    <property name="platform.active" value="default_platform" />
    <property name="awt.toolkit" value="sun.awt.windows.WToolkit" />
  </properties>
  <testcase classname="sub_buisness_tier.TFacadeTest" name="testAddAirport" time="0.002" />
  <testcase classname="sub_buisness_tier.TFacadeTest" name="testAddAlimentation" time="0.003" />
  <testcase classname="sub_buisness_tier.TFacadeTest" name="testAddDirection" time="0.0" />
  <testcase classname="sub_buisness_tier.TFacadeTest" name="testAddHotel" time="0.003" />
  <testcase classname="sub_buisness_tier.TFacadeTest" name="testAddOffice" time="0.002" />
  <testcase classname="sub_buisness_tier.TFacadeTest" name="testAddSportEntertainment" time="0.003" />
  <testcase classname="sub_buisness_tier.TFacadeTest" name="testAdd_user" time="0.001" />
  <testcase classname="sub_buisness_tier.TFacadeTest" name="testGetDirectionDataList" time="0.001" />
  <testcase classname="sub_buisness_tier.TFacadeTest" name="testGetDirectionList" time="0.001" />
  <testcase classname="sub_buisness_tier.TFacadeTest" name="testGetOffices" time="0.001" />
  <testcase classname="sub_buisness_tier.TFacadeTest" name="testGetmUser" time="0.0" />
  <testcase classname="sub_buisness_tier.TFacadeTest" name="testSearchDirection" time="0.003" />
  <testcase classname="sub_buisness_tier.TFacadeTest" name="testSearchOffice" time="0.0" />
  <testcase classname="sub_buisness_tier.TFacadeTest" name="testSearch_user" time="0.001" />
  <testcase classname="sub_buisness_tier.TFacadeTest" name="testSetDirectionList" time="0.0" />
  <testcase classname="sub_buisness_tier.TFacadeTest" name="testSetOffices" time="0.001" />
  <testcase classname="sub_buisness_tier.TFacadeTest" name="testSetmUser" time="0.001" />
  <system-out><![CDATA[addAirport
Direction{Country='Country1'} added
Przypisano lotniskoCity1, Country1 - Code1
addAlimentation
Direction{Country='Country1'} added
Dodano hotelHotel{name=Street1, street=Standard1, postalCode=Postal1, city=Hotel1, standard=City1}
Dodano wyzywienieAlimentation{meals='Meals1'}
addDirection
Direction{Country='Country1'} added
addHotel
Direction{Country='Country1'} added
Dodano hotelHotel{name=Street1, street=Standard1, postalCode=Postal1, city=Hotel1, standard=City1}
addOffice
addSportEntertainment
Direction{Country='Country1'} added
Dodano hotelHotel{name=Street1, street=Standard1, postalCode=Postal1, city=Hotel1, standard=City1}
Dodano sportsub_buisness_tier.entities.SportEntertainment@4d869a2
add_user
Added
getDirectionDataList
Direction{Country='Country1'} added
getDirectionList
Direction{Country='Country1'} added
getOffices
getmUser
Added
searchDirection
Direction{Country='Country1'} added
searchOffice
Test: search_user
Added
setDirectionList
Direction{Country='Country1'} added
setOffices
setmUser
]]></system-out>
  <system-err><![CDATA[]]></system-err>
</testsuite>
